Date,LandWaterIndex(Index),Average(2009-2014)
2002/06/08,0.034,0.032
2002/06/23,0.033,0.031
2002/07/08,0.028,0.028
2002/07/23,0.028,0.026
2002/08/08,0.027,0.027
2002/08/23,0.031,0.028
2002/09/08,0.031,0.030
2002/09/23,0.034,0.031
2002/10/08,0.033,0.032
2002/10/23,0.033,0.033
2002/11/08,0.033,0.032
2002/11/23,0.038,0.033
2002/12/08,0.037,0.034
2002/12/23,0.037,0.039
2003/01/08,0.041,0.040
2003/01/23,0.042,0.041
2003/02/08,0.041,0.043
2003/02/23,0.041,0.040
2003/03/08,0.040,0.042
2003/03/23,0.042,0.041
2003/04/08,0.041,0.038
2003/04/23,0.039,0.037
2003/05/08,0.039,0.034
2003/05/23,0.038,0.035
2003/06/08,0.038,0.032
2003/06/23,0.033,0.031
2003/07/08,0.032,0.028
2003/07/23,0.032,0.026
2003/08/08,0.029,0.027
2003/08/23,0.033,0.028
2003/09/08,0.032,0.030
2003/09/23,0.034,0.031
2003/10/08,0.034,0.032
2003/10/23,0.034,0.033
2003/11/08,0.031,0.032
2003/11/23,0.035,0.033
2003/12/08,0.037,0.034
2003/12/23,0.041,0.039
2004/01/08,0.042,0.040
2004/01/23,0.044,0.041
2004/02/08,0.041,0.043
2004/02/23,0.042,0.040
2004/03/08,0.045,0.042
2004/03/23,0.045,0.041
2004/04/08,0.042,0.038
2004/04/23,0.038,0.037
2004/05/08,0.037,0.034
2004/05/23,0.036,0.035
2004/06/08,0.038,0.032
2004/06/23,0.032,0.031
2004/07/08,0.031,0.028
2004/07/23,0.029,0.026
2004/08/08,0.030,0.027
2004/08/23,0.033,0.028
2004/09/08,0.034,0.030
2004/09/23,0.037,0.031
2004/10/08,0.036,0.032
2004/10/23,0.035,0.033
2004/11/08,0.033,0.032
2004/11/23,0.035,0.033
2004/12/08,0.040,0.034
2004/12/23,0.043,0.039
2005/01/08,0.045,0.040
2005/01/23,0.046,0.041
2005/02/08,0.042,0.043
2005/02/23,0.042,0.040
2005/03/08,0.042,0.042
2005/03/23,0.045,0.041
2005/04/08,0.041,0.038
2005/04/23,0.040,0.037
2005/05/08,0.038,0.034
2005/05/23,0.038,0.035
2005/06/08,0.035,0.032
2005/06/23,0.033,0.031
2005/07/08,0.030,0.028
2005/07/23,0.029,0.026
2005/08/08,0.030,0.027
2005/08/23,0.033,0.028
2005/09/08,0.034,0.030
2005/09/23,0.034,0.031
2005/10/08,0.035,0.032
2005/10/23,0.035,0.033
2005/11/08,0.034,0.032
2005/11/23,0.035,0.033
2005/12/08,0.038,0.034
2005/12/23,0.040,0.039
2006/01/08,0.041,0.040
2006/01/23,0.041,0.041
2006/02/08,0.042,0.043
2006/02/23,0.046,0.040
2006/03/08,0.043,0.042
2006/03/23,0.042,0.041
2006/04/08,0.043,0.038
2006/04/23,0.040,0.037
2006/05/08,0.040,0.034
2006/05/23,0.038,0.035
2006/06/08,0.035,0.032
2006/06/23,0.033,0.031
2006/07/08,0.031,0.028
2006/07/23,0.030,0.026
2006/08/08,0.028,0.027
2006/08/23,0.031,0.028
2006/09/08,0.033,0.030
2006/09/23,0.033,0.031
2006/10/08,0.035,0.032
2006/10/23,0.036,0.033
2006/11/08,0.035,0.032
2006/11/23,0.035,0.033
2006/12/08,0.038,0.034
2006/12/23,0.041,0.039
2007/01/08,0.042,0.040
2007/01/23,0.041,0.041
2007/02/08,0.044,0.043
2007/02/23,0.046,0.040
2007/03/08,0.044,0.042
2007/03/23,0.044,0.041
2007/04/08,0.041,0.038
2007/04/23,0.040,0.037
2007/05/08,0.036,0.034
2007/05/23,0.037,0.035
2007/06/08,0.036,0.032
2007/06/23,0.033,0.031
2007/07/08,0.032,0.028
2007/07/23,0.031,0.026
2007/08/08,0.028,0.027
2007/08/23,0.033,0.028
2007/09/08,0.029,0.030
2007/09/23,0.032,0.031
2007/10/08,0.035,0.032
2007/10/23,0.035,0.033
2007/11/08,0.036,0.032
2007/11/23,0.034,0.033
2007/12/08,0.036,0.034
2007/12/23,0.040,0.039
2008/01/08,0.040,0.040
2008/01/23,0.038,0.041
2008/02/08,0.039,0.043
2008/02/23,0.040,0.040
2008/03/08,0.041,0.042
2008/03/23,0.040,0.041
2008/04/08,0.039,0.038
2008/04/23,0.037,0.037
2008/05/08,0.037,0.034
2008/05/23,0.037,0.035
2008/06/08,0.037,0.032
2008/06/23,0.035,0.031
2008/07/08,0.029,0.028
2008/07/23,0.029,0.026
2008/08/08,0.031,0.027
2008/08/23,0.032,0.028
2008/09/08,0.033,0.030
2008/09/23,0.033,0.031
2008/10/08,0.034,0.032
2008/10/23,0.034,0.033
2008/11/08,0.035,0.032
2008/11/23,0.037,0.033
2008/12/08,0.038,0.034
2008/12/23,0.037,0.039
2009/01/08,0.041,0.040
2009/01/23,0.046,0.041
2009/02/08,0.050,0.043
2009/02/23,0.043,0.040
2009/03/08,0.045,0.042
2009/03/23,0.043,0.041
2009/04/08,0.041,0.038
2009/04/23,0.039,0.037
2009/05/08,0.038,0.034
2009/05/23,0.038,0.035
2009/06/08,0.033,0.032
2009/06/23,0.033,0.031
2009/07/08,0.030,0.028
2009/07/23,0.028,0.026
2009/08/08,0.031,0.027
2009/08/23,0.031,0.028
2009/09/08,0.034,0.030
2009/09/23,0.034,0.031
2009/10/08,0.035,0.032
2009/10/23,0.035,0.033
2009/11/08,0.036,0.032
2009/11/23,0.036,0.033
2009/12/08,0.037,0.034
2009/12/23,0.039,0.039
2010/01/08,0.042,0.040
2010/01/23,0.044,0.041
2010/02/08,0.041,0.043
2010/02/23,0.043,0.040
2010/03/08,0.045,0.042
2010/03/23,0.042,0.041
2010/04/08,0.041,0.038
2010/04/23,0.039,0.037
2010/05/08,0.036,0.034
2010/05/23,0.038,0.035
2010/06/08,0.036,0.032
2010/06/23,0.031,0.031
2010/07/08,0.029,0.028
2010/07/23,0.028,0.026
2010/08/08,0.028,0.027
2010/08/23,0.031,0.028
2010/09/08,0.033,0.030
2010/09/23,0.033,0.031
2010/10/08,0.035,0.032
2010/10/23,0.036,0.033
2010/11/08,0.033,0.032
2010/11/23,0.036,0.033
2010/12/08,0.036,0.034
2010/12/23,0.042,0.039
2011/01/08,0.040,0.040
2011/01/23,0.040,0.041
2011/02/08,0.042,0.043
2011/02/23,0.044,0.040
2011/03/08,0.044,0.042
2011/03/23,0.044,0.041
2011/04/08,0.039,0.038
2011/04/23,0.037,0.037
2011/05/08,0.038,0.034
2011/05/23,0.038,0.035
2011/06/08,0.035,0.032
2011/06/23,0.035,0.031
2011/07/08,0.029,0.028
2011/07/23,0.031,0.026
2011/08/08,0.030,0.027
2011/08/23,0.031,0.028
2011/09/08,0.031,0.030
2011/09/23,0.034,0.031
2012/01/01,0.000,-9999.000
2012/08/08,0.025,0.027
2012/08/23,0.025,0.028
2012/09/08,0.025,0.030
2012/09/23,0.026,0.031
2012/10/08,0.029,0.032
2012/10/23,0.029,0.033
2012/11/08,0.029,0.032
2012/11/23,0.032,0.033
2012/12/08,0.035,0.034
2012/12/23,0.038,0.039
2013/01/08,0.040,0.040
2013/01/23,0.038,0.041
2013/02/08,0.039,0.043
2013/02/23,0.036,0.040
2013/03/08,0.039,0.042
2013/03/23,0.039,0.041
2013/04/08,0.036,0.038
2013/04/23,0.034,0.037
2013/05/08,0.031,0.034
2013/05/23,0.032,0.035
2013/06/08,0.030,0.032
2013/06/23,0.028,0.031
2013/07/08,0.026,0.028
2013/07/23,0.024,0.026
2013/08/08,0.024,0.027
2013/08/23,0.025,0.028
2013/09/08,0.025,0.030
2013/09/23,0.029,0.031
2013/10/08,0.030,0.032
2013/10/23,0.031,0.033
2013/11/08,0.030,0.032
2013/11/23,0.031,0.033
2013/12/08,0.031,0.034
2013/12/23,0.036,0.039
2014/01/08,0.035,0.040
2014/01/23,0.038,0.041
2014/02/08,0.041,0.043
2014/02/23,0.037,0.040
2014/03/08,0.038,0.042
2014/03/23,0.039,0.041
2014/04/08,0.035,0.038
2014/04/23,0.034,0.037
2014/05/08,0.032,0.034
2014/05/23,0.032,0.035
2014/06/08,0.029,0.032
2014/06/23,0.028,0.031
2014/07/08,0.026,0.028
2014/07/23,0.025,0.026
2014/08/08,0.025,0.027
2014/08/23,0.027,0.028
2014/09/08,0.027,0.030
2014/09/23,0.029,0.031
2014/10/08,0.029,0.032
2014/10/23,0.030,0.033
2014/11/08,0.030,0.032
2014/11/23,0.031,0.033
2014/12/08,0.031,0.034
2014/12/23,0.038,0.039
2015/01/08,0.039,0.040
2015/01/23,0.040,0.041
2015/02/08,0.040,0.043
2015/02/23,0.039,0.040
2015/03/08,0.037,0.042
2015/03/23,0.038,0.041
2015/04/08,0.035,0.038
2015/04/23,0.034,0.037
2015/05/08,0.032,0.034
2015/05/23,0.032,0.035
2015/06/08,0.030,0.032
2015/06/23,0.028,0.031
2015/07/08,0.028,0.028
2015/07/23,0.024,0.026
2015/08/08,0.024,0.027
2015/08/23,0.026,0.028
2015/09/08,0.028,0.030
2015/09/23,0.028,0.031
2015/10/08,0.029,0.032
2015/10/23,0.030,0.033
2015/11/08,0.030,0.032
2015/11/23,0.033,0.033
2015/12/08,0.035,0.034
2015/12/23,0.034,0.039
2016/01/08,0.033,0.040
2016/01/23,0.035,0.041
2016/02/08,0.037,0.043
2016/02/23,0.039,0.040
2016/03/08,0.040,0.042
2016/03/23,0.036,0.041
2016/04/08,0.033,0.038
2016/04/23,0.032,0.037
2016/05/08,0.031,0.034
2016/05/23,0.032,0.035
2016/06/08,0.030,0.032
2016/06/23,0.028,0.031
2016/07/08,0.027,0.028
2016/07/23,0.024,0.026
2016/08/08,0.025,0.027
2016/08/23,0.018,0.028
2016/09/08,0.025,0.030
2016/09/23,0.029,0.031
2016/10/08,0.029,0.032
2016/10/23,0.029,0.033
2016/11/08,0.033,0.032
2016/11/23,0.031,0.033
2016/12/08,0.034,0.034
2016/12/23,0.038,0.039
2017/01/08,0.036,0.040
2017/01/23,0.039,0.041
2017/02/08,0.037,0.043
2017/02/23,0.038,0.040
2017/03/08,0.040,0.042
2017/03/23,0.035,0.041
2017/04/08,0.033,0.038
2017/04/23,0.033,0.037
2017/05/08,0.031,0.034
2017/05/23,0.031,0.035
2017/06/08,0.030,0.032
2017/06/23,0.028,0.031
2017/07/08,0.026,0.028
2017/07/23,0.026,0.026
2017/08/08,0.024,0.027
2017/08/23,0.025,0.028
2017/09/08,0.028,0.030
2017/09/23,0.028,0.031
2017/10/08,0.028,0.032
2017/10/23,0.030,0.033
2017/11/08,0.029,0.032
2017/11/23,0.031,0.033
2017/12/08,0.034,0.034
2017/12/23,0.036,0.039
2018/01/08,0.036,0.040
2018/01/23,0.038,0.041
2018/02/08,0.036,0.043
2018/02/23,0.036,0.040
2018/03/08,0.039,0.042
2018/03/23,0.037,0.041
2018/04/08,0.034,0.038
2018/04/23,0.033,0.037
2018/05/08,0.031,0.034
2018/05/23,0.032,0.035
2018/06/08,0.029,0.032
2018/06/23,0.027,0.031
2018/07/08,0.023,0.028
2018/07/23,0.024,0.026
2018/08/08,0.025,0.027
2018/08/23,0.025,0.028
2018/09/08,0.028,0.030
2018/09/23,0.028,0.031
2018/10/08,0.029,0.032
2018/10/23,0.030,0.033
2018/11/08,0.029,0.032
2018/11/23,0.029,0.033
2018/12/08,0.030,0.034
2018/12/23,0.033,0.039
2019/01/08,0.033,0.040
2019/01/23,0.035,0.041
2019/02/08,0.034,0.043
2019/02/23,0.037,0.040
2019/03/08,0.036,0.042
2019/03/23,0.035,0.041
2019/04/08,0.034,0.038
2019/04/23,0.032,0.037
2019/05/08,0.032,0.034
2019/05/23,0.033,0.035
2019/06/08,0.030,0.032
2019/06/23,0.027,0.031
2019/07/08,0.026,0.028
2019/07/23,0.022,0.026
2019/08/08,0.024,0.027
2019/08/23,0.025,0.028
2019/09/08,0.027,0.030
2019/09/23,0.029,0.031
2019/10/08,0.028,0.032
2019/10/23,0.031,0.033
2019/11/08,0.029,0.032
2019/11/23,0.030,0.033
2019/12/08,0.032,0.034
2019/12/23,0.033,0.039
2020/01/08,0.034,0.040
2020/01/23,0.035,0.041
2020/02/08,0.036,0.043
2020/02/23,0.037,0.040
2020/03/08,0.036,0.042
2020/03/23,0.035,0.041
2020/04/08,0.032,0.038
2020/04/23,0.031,0.037
2020/05/08,0.031,0.034
2020/05/23,0.031,0.035
2020/06/08,0.029,0.032
2020/06/23,0.025,0.031
2020/07/08,0.026,0.028
2020/07/23,0.025,0.026
2020/08/08,0.024,0.027
2020/08/23,0.026,0.028
2020/09/08,0.023,0.030
