Date,SoilMoisture(%vol),Average(2009-2014)
2002/06/08,13.328,16.543
2002/06/23,18.082,12.606
2002/07/08,22.313,10.909
2002/07/23,21.589,12.442
2002/08/23,14.611,9.803
2002/09/08,12.142,8.570
2002/10/08,16.344,13.783
2002/10/23,14.762,15.235
2002/11/08,6.927,11.812
2002/11/23,5.183,7.630
2002/12/08,3.325,5.364
2002/12/23,3.798,3.936
2003/01/08,3.843,3.834
2003/01/23,3.748,3.776
2003/02/08,3.727,3.633
2003/02/23,3.557,3.710
2003/03/08,3.632,3.819
2003/03/23,3.374,3.665
2003/04/08,4.860,4.416
2003/04/23,6.755,5.448
2003/05/08,8.753,9.291
2003/05/23,15.300,18.447
2003/06/08,12.789,16.543
2003/06/23,10.957,12.606
2003/07/08,10.523,10.909
2003/07/23,9.125,12.442
2003/08/08,12.049,10.505
2003/08/23,13.302,9.803
2003/09/08,10.233,8.570
2003/09/23,11.568,8.697
2003/10/08,10.889,13.783
2003/10/23,19.066,15.235
2003/11/23,9.731,7.630
2003/12/08,5.474,5.364
2003/12/23,4.531,3.936
2004/01/08,4.069,3.834
2004/01/23,4.061,3.776
2004/02/08,4.170,3.633
2004/02/23,3.894,3.710
2004/03/08,3.724,3.819
2004/03/23,3.945,3.665
2004/04/08,4.085,4.416
2004/04/23,5.972,5.448
2004/05/08,13.597,9.291
2004/05/23,19.307,18.447
2004/06/08,9.494,16.543
2004/06/23,11.746,12.606
2004/07/08,17.951,10.909
2004/07/23,8.511,12.442
2004/08/08,10.021,10.505
2004/08/23,7.474,9.803
2004/09/08,8.390,8.570
2004/09/23,11.130,8.697
2004/10/08,13.496,13.783
2004/10/23,14.053,15.235
2004/11/08,14.433,11.812
2004/11/23,8.331,7.630
2004/12/08,4.930,5.364
2004/12/23,3.696,3.936
2005/01/08,3.806,3.834
2005/01/23,3.720,3.776
2005/02/08,3.528,3.633
2005/02/23,3.576,3.710
2005/03/08,4.008,3.819
2005/03/23,2.979,3.665
2005/04/08,4.184,4.416
2005/04/23,5.952,5.448
2005/05/08,7.331,9.291
2005/05/23,16.696,18.447
2005/06/08,19.862,16.543
2005/06/23,9.163,12.606
2005/07/08,16.654,10.909
2005/07/23,11.423,12.442
2005/08/08,10.397,10.505
2005/08/23,11.522,9.803
2005/09/08,9.008,8.570
2005/09/23,8.654,8.697
2005/10/08,9.136,13.783
2005/10/23,16.769,15.235
2005/11/08,13.017,11.812
2005/11/23,5.765,7.630
2005/12/08,3.724,5.364
2005/12/23,3.984,3.936
2006/01/08,3.977,3.834
2006/01/23,4.033,3.776
2006/02/08,3.935,3.633
2006/02/23,3.733,3.710
2006/03/08,3.089,3.819
2006/03/23,3.833,3.665
2006/04/08,3.966,4.416
2006/04/23,6.377,5.448
2006/05/08,9.009,9.291
2006/05/23,22.158,18.447
2006/06/08,20.100,16.543
2006/06/23,18.166,12.606
2006/07/08,12.713,10.909
2006/07/23,9.235,12.442
2006/08/08,9.459,10.505
2006/08/23,17.068,9.803
2006/09/08,8.095,8.570
2006/09/23,9.149,8.697
2006/10/08,12.662,13.783
2006/10/23,15.046,15.235
2006/11/08,16.001,11.812
2006/11/23,7.290,7.630
2006/12/08,4.485,5.364
2006/12/23,4.060,3.936
2007/01/08,3.468,3.834
2007/01/23,3.593,3.776
2007/02/08,3.887,3.633
2007/02/23,3.701,3.710
2007/03/08,3.350,3.819
2007/03/23,3.229,3.665
2007/04/08,4.264,4.416
2007/04/23,4.993,5.448
2007/05/08,10.351,9.291
2007/05/23,23.286,18.447
2007/06/08,11.341,16.543
2007/06/23,10.549,12.606
2007/07/08,10.401,10.909
2007/07/23,9.454,12.442
2007/08/08,13.494,10.505
2007/08/23,7.241,9.803
2007/09/08,11.873,8.570
2007/09/23,7.224,8.697
2007/10/08,8.202,13.783
2007/10/23,14.345,15.235
2007/11/08,11.800,11.812
2007/11/23,5.700,7.630
2007/12/08,4.695,5.364
2007/12/23,4.255,3.936
2008/01/08,3.891,3.834
2008/01/23,3.772,3.776
2008/02/08,3.365,3.633
2008/02/23,3.199,3.710
2008/03/08,4.939,3.819
2008/03/23,4.013,3.665
2008/04/08,4.508,4.416
2008/04/23,6.625,5.448
2008/05/08,8.140,9.291
2008/05/23,17.877,18.447
2008/06/08,12.932,16.543
2008/06/23,14.138,12.606
2008/07/08,10.642,10.909
2008/07/23,10.863,12.442
2008/08/08,11.000,10.505
2008/08/23,9.699,9.803
2008/09/08,9.027,8.570
2008/09/23,6.527,8.697
2008/10/08,11.912,13.783
2008/10/23,14.067,15.235
2008/11/08,10.048,11.812
2008/11/23,6.208,7.630
2008/12/08,5.390,5.364
2008/12/23,4.551,3.936
2009/01/08,3.945,3.834
2009/01/23,3.831,3.776
2009/02/08,3.720,3.633
2009/02/23,3.658,3.710
2009/03/08,3.726,3.819
2009/03/23,3.727,3.665
2009/04/08,5.146,4.416
2009/04/23,5.585,5.448
2009/05/08,8.406,9.291
2009/05/23,20.974,18.447
2009/06/08,18.178,16.543
2009/06/23,13.267,12.606
2009/07/08,11.194,10.909
2009/07/23,18.467,12.442
2009/08/08,9.096,10.505
2009/08/23,10.678,9.803
2009/09/08,7.324,8.570
2009/09/23,9.550,8.697
2009/10/08,12.362,13.783
2009/10/23,16.455,15.235
2009/11/08,12.744,11.812
2009/11/23,5.953,7.630
2009/12/08,4.584,5.364
2009/12/23,3.889,3.936
2010/01/08,4.057,3.834
2010/01/23,3.855,3.776
2010/02/08,3.599,3.633
2010/02/23,3.930,3.710
2010/03/08,4.577,3.819
2010/03/23,3.543,3.665
2010/04/08,4.080,4.416
2010/04/23,5.075,5.448
2010/05/08,9.038,9.291
2010/05/23,21.628,18.447
2010/06/08,16.908,16.543
2010/06/23,12.436,12.606
2010/07/08,12.013,10.909
2010/07/23,12.223,12.442
2010/08/08,12.938,10.505
2010/08/23,7.547,9.803
2010/09/08,6.446,8.570
2010/09/23,6.622,8.697
2010/10/08,16.944,13.783
2010/10/23,17.150,15.235
2010/11/08,12.614,11.812
2010/11/23,8.047,7.630
2010/12/08,7.294,5.364
2010/12/23,3.942,3.936
2011/01/08,3.884,3.834
2011/01/23,4.183,3.776
2011/02/08,4.115,3.633
2011/02/23,3.090,3.710
2011/03/08,3.138,3.819
2011/03/23,2.932,3.665
2011/04/08,4.858,4.416
2011/04/23,7.105,5.448
2011/05/08,10.174,9.291
2011/05/23,21.291,18.447
2011/06/08,18.961,16.543
2011/06/23,15.230,12.606
2011/07/08,19.862,10.909
2011/07/23,10.492,12.442
2011/08/08,12.862,10.505
2011/08/23,10.086,9.803
2011/09/08,17.501,8.570
2011/09/23,9.298,8.697
2012/01/01,0.000,-9999.000
2012/07/08,11.288,10.909
2012/07/23,7.447,12.442
2012/08/08,12.236,10.505
2012/08/23,10.517,9.803
2012/09/08,10.838,8.570
2012/09/23,8.979,8.697
2012/10/08,7.656,13.783
2012/10/23,15.063,15.235
2012/11/08,12.824,11.812
2012/11/23,6.135,7.630
2012/12/08,3.912,5.364
2012/12/23,3.772,3.936
2013/01/08,3.492,3.834
2013/01/23,3.690,3.776
2013/02/08,3.671,3.633
2013/02/23,3.785,3.710
2013/03/08,3.825,3.819
2013/03/23,2.952,3.665
2013/04/08,5.183,4.416
2013/04/23,5.622,5.448
2013/05/08,6.755,9.291
2013/05/23,18.530,18.447
2013/06/08,14.455,16.543
2013/06/23,12.988,12.606
2013/07/08,10.346,10.909
2013/07/23,10.460,12.442
2013/08/08,10.979,10.505
2013/08/23,9.396,9.803
2013/09/08,11.088,8.570
2013/09/23,7.722,8.697
2013/10/08,13.599,13.783
2013/10/23,13.407,15.235
2013/11/08,9.179,11.812
2013/11/23,8.073,7.630
2013/12/08,5.097,5.364
2013/12/23,3.919,3.936
2014/01/08,3.958,3.834
2014/01/23,3.943,3.776
2014/02/08,3.718,3.633
2014/02/23,3.785,3.710
2014/03/08,3.569,3.819
2014/03/23,3.795,3.665
2014/04/08,4.512,4.416
2014/04/23,4.797,5.448
2014/05/08,9.526,9.291
2014/05/23,16.180,18.447
2014/06/08,15.713,16.543
2014/06/23,10.399,12.606
2014/07/08,10.066,10.909
2014/07/23,9.974,12.442
2014/08/08,8.872,10.505
2014/08/23,11.027,9.803
2014/09/08,10.365,8.570
2014/09/23,7.617,8.697
2014/10/08,15.253,13.783
2014/10/23,14.511,15.235
2014/11/08,12.305,11.812
2014/11/23,6.795,7.630
2014/12/08,4.868,5.364
2014/12/23,3.840,3.936
2015/01/08,3.570,3.834
2015/01/23,3.793,3.776
2015/02/08,3.635,3.633
2015/02/23,3.642,3.710
2015/03/08,3.933,3.819
2015/03/23,4.647,3.665
2015/04/08,5.806,4.416
2015/04/23,6.819,5.448
2015/05/08,12.083,9.291
2015/05/23,12.860,18.447
2015/06/08,14.331,16.543
2015/06/23,10.800,12.606
2015/07/08,11.226,10.909
2015/07/23,14.377,12.442
2015/08/08,11.068,10.505
2015/08/23,9.959,9.803
2015/09/08,7.943,8.570
2015/09/23,9.915,8.697
2015/10/08,15.507,13.783
2015/10/23,12.700,15.235
2015/11/08,13.231,11.812
2015/11/23,8.426,7.630
2015/12/08,3.883,5.364
2015/12/23,3.234,3.936
2016/01/08,3.511,3.834
2016/01/23,3.887,3.776
2016/02/08,4.257,3.633
2016/02/23,3.307,3.710
2016/03/08,3.647,3.819
2016/03/23,3.399,3.665
2016/04/08,5.718,4.416
2016/04/23,6.007,5.448
2016/05/08,8.242,9.291
2016/05/23,8.493,18.447
2016/06/08,18.912,16.543
2016/06/23,20.598,12.606
2016/07/08,11.249,10.909
2016/07/23,14.386,12.442
2016/08/08,8.935,10.505
2016/08/23,16.605,9.803
2016/09/08,15.641,8.570
2016/09/23,8.843,8.697
2016/10/08,15.411,13.783
2016/10/23,17.529,15.235
2016/11/08,5.220,11.812
2016/11/23,5.151,7.630
2016/12/08,4.412,5.364
2016/12/23,3.764,3.936
2017/01/08,3.614,3.834
2017/01/23,3.602,3.776
2017/02/08,3.593,3.633
2017/02/23,3.501,3.710
2017/03/08,3.126,3.819
2017/03/23,2.752,3.665
2017/04/08,4.562,4.416
2017/04/23,5.312,5.448
2017/05/08,8.546,9.291
2017/05/23,13.875,18.447
2017/06/08,16.989,16.543
2017/06/23,13.756,12.606
2017/07/08,13.008,10.909
2017/07/23,11.582,12.442
2017/08/08,13.997,10.505
2017/08/23,8.136,9.803
2017/09/08,7.245,8.570
2017/09/23,10.279,8.697
2017/10/08,14.546,13.783
2017/10/23,14.176,15.235
2017/11/08,17.138,11.812
2017/11/23,5.840,7.630
2017/12/08,4.055,5.364
2017/12/23,3.994,3.936
2018/01/08,3.737,3.834
2018/01/23,3.450,3.776
2018/02/08,3.600,3.633
2018/02/23,3.492,3.710
2018/03/08,3.843,3.819
2018/03/23,3.354,3.665
2018/04/08,4.553,4.416
2018/04/23,5.708,5.448
2018/05/08,8.425,9.291
2018/05/23,10.382,18.447
2018/06/08,16.215,16.543
2018/06/23,18.537,12.606
2018/07/08,16.162,10.909
2018/07/23,11.231,12.442
2018/08/08,11.120,10.505
2018/08/23,17.339,9.803
2018/09/08,8.829,8.570
2018/09/23,9.348,8.697
2018/10/08,15.969,13.783
2018/10/23,18.883,15.235
2018/11/08,15.434,11.812
2018/11/23,7.314,7.630
2018/12/08,5.356,5.364
2018/12/23,3.642,3.936
2019/01/08,3.853,3.834
2019/01/23,3.741,3.776
2019/02/08,3.792,3.633
2019/02/23,3.653,3.710
2019/03/08,3.433,3.819
2019/03/23,3.728,3.665
2019/04/08,3.723,4.416
2019/04/23,5.743,5.448
2019/05/08,7.651,9.291
2019/05/23,7.874,18.447
2019/06/08,11.702,16.543
2019/06/23,11.163,12.606
2019/07/08,12.178,10.909
2019/07/23,9.836,12.442
2019/08/08,8.318,10.505
2019/08/23,13.881,9.803
2019/09/08,10.372,8.570
2019/09/23,12.407,8.697
2019/10/08,14.834,13.783
2019/10/23,24.737,15.235
2019/11/08,12.293,11.812
2019/11/23,5.459,7.630
2019/12/08,4.936,5.364
2019/12/23,4.038,3.936
2020/01/08,3.809,3.834
2020/01/23,3.738,3.776
2020/02/08,3.605,3.633
2020/02/23,3.558,3.710
2020/03/08,4.179,3.819
2020/03/23,3.938,3.665
2020/04/08,4.740,4.416
2020/04/23,5.400,5.448
2020/05/08,8.401,9.291
2020/05/23,13.745,18.447
2020/06/08,11.411,16.543
2020/06/23,20.429,12.606
2020/07/08,7.989,10.909
2020/07/23,12.310,12.442
2020/08/08,13.908,10.505
2020/08/23,10.569,9.803
2020/09/08,16.580,8.570
2020/09/23,10.163,8.697
